{
  "choose_department": {
    "attachment": {
      "type": "template",
      "payload": {
        "template_type": "generic",
        "elements": [
          {
            "title": "ต้องการสอบถามข้อมูล",
            "subtitle": "เลือกช่องทางในการสอบถาม",
            "buttons": [
              {
                "type": "postback",
                "title": "Department Store",
                "payload": "store"
              },
              {
                "type": "postback",
                "title": "Central Online",
                "payload": "online"
              }
            ]
          }
        ]
      }
    }
  },
  "question_2": {}
}